<svg width="526" height="429" viewBox="0 0 526 429" fill="none" xmlns="http://www.w3.org/2000/svg">
<path d="M0 379.078H526V379.341H0V379.078Z" fill="#EBEBEB"/>
<path d="M435.97 389.093H470.812V389.356H435.97V389.093Z" fill="#EBEBEB"/>
<path d="M296.78 386.242H345.961V386.505H296.78V386.242Z" fill="#EBEBEB"/>
<path d="M387.147 397.225H407.335V397.488H387.147V397.225Z" fill="#EBEBEB"/>
<path d="M165.648 392.659H197.429V392.922H165.648V392.659Z" fill="#EBEBEB"/>
<path d="M135.961 392.659H156.285V392.922H135.961V392.659Z" fill="#EBEBEB"/>
<path d="M52.6947 397.098H114.3V397.361H52.6947V397.098Z" fill="#EBEBEB"/>
<path d="M276.676 332.158H479.806C481.398 332.156 482.923 331.522 484.047 330.395C485.171 329.269 485.803 327.743 485.803 326.152V40.6072C485.789 39.025 485.151 37.5121 484.029 36.3973C482.906 35.2824 481.389 34.6555 479.806 34.6528H276.676C275.083 34.6528 273.555 35.2857 272.428 36.4122C271.302 37.5387 270.669 39.0666 270.669 40.6598V326.152C270.669 327.745 271.302 329.273 272.428 330.399C273.555 331.526 275.083 332.158 276.676 332.158ZM479.806 34.8632C481.328 34.866 482.786 35.4724 483.861 36.5493C484.936 37.6262 485.54 39.0856 485.54 40.6072V326.152C485.54 327.673 484.936 329.132 483.861 330.209C482.786 331.286 481.328 331.893 479.806 331.895H276.676C275.153 331.893 273.694 331.287 272.617 330.21C271.541 329.133 270.934 327.674 270.932 326.152V40.6072C270.934 39.0846 271.541 37.6253 272.617 36.5487C273.694 35.4721 275.153 34.866 276.676 34.8632H479.806Z" fill="#EBEBEB"/>
<path d="M49.1174 332.158H252.259C253.851 332.156 255.377 331.522 256.503 330.396C257.629 329.27 258.263 327.744 258.266 326.152V40.6072C258.249 39.024 257.609 37.5112 256.485 36.3966C255.36 35.282 253.842 34.6555 252.259 34.6528H49.1174C47.537 34.6583 46.0224 35.2864 44.9019 36.401C43.7815 37.5155 43.1454 39.0268 43.1315 40.6072V326.152C43.1315 327.741 43.7615 329.266 44.8835 330.392C46.0055 331.518 47.5279 332.153 49.1174 332.158ZM252.259 34.8632C253.781 34.866 255.241 35.4721 256.317 36.5487C257.394 37.6253 258 39.0846 258.003 40.6072V326.152C258 327.674 257.394 329.133 256.317 330.21C255.241 331.287 253.781 331.893 252.259 331.895H49.1174C47.5949 331.893 46.1355 331.287 45.0589 330.21C43.9823 329.133 43.3763 327.674 43.3735 326.152V40.6072C43.3763 39.0846 43.9823 37.6253 45.0589 36.5487C46.1355 35.4721 47.5949 34.866 49.1174 34.8632H252.259Z" fill="#EBEBEB"/>
<path d="M78.2055 60.6267H158.494V362.53H78.2055V60.6267Z" fill="#E6E6E6"/>
<path d="M73.3032 60.6267H153.592V362.53H73.3032V60.6267Z" fill="#F5F5F5"/>
<path d="M82.1084 354.503L82.1084 68.6534H144.786V354.503H82.1084Z" fill="white"/>
<path d="M82.1084 354.503L82.1084 68.6534H85.8114L85.8114 354.503H82.1084Z" fill="#E6E6E6"/>
<path d="M76.9433 306.332H149.952V317.104H76.9433V306.332Z" fill="#F5F5F5"/>
<path d="M76.9433 82.8029H149.952V93.5753H76.9433V82.8029Z" fill="#F5F5F5"/>
<path d="M378.72 60.6267H459.009V362.53H378.72V60.6267Z" fill="#E6E6E6"/>
<path d="M373.818 60.6267H454.106V362.53H373.818V60.6267Z" fill="#F5F5F5"/>
<path d="M382.623 354.503V68.6534H445.301V354.503H382.623Z" fill="white"/>
<path d="M382.623 354.503V68.6534H386.326V354.503H382.623Z" fill="#E6E6E6"/>
<path d="M377.458 306.332H450.467V317.104H377.458V306.332Z" fill="#F5F5F5"/>
<path d="M377.458 82.8029H450.467V93.5753H377.458V82.8029Z" fill="#F5F5F5"/>
<path d="M341.248 236.342L180.944 236.342L180.944 83.8022L341.248 83.8022V236.342Z" fill="#F5F5F5"/>
<path d="M341.247 83.8127H345.056V236.353H341.247V83.8127Z" fill="#F0F0F0"/>
<path d="M187.245 230.041V90.1248L334.925 90.1248V230.041H187.245Z" fill="#FAFAFA"/>
<path d="M334.936 159.557C286.238 153.939 237.531 165.164 188.834 159.557V156.748C237.531 162.355 286.238 151.141 334.936 156.748V159.557Z" fill="#F0F0F0"/>
<path d="M187.256 230.041V90.1249H188.834V230.041H187.256Z" fill="#F0F0F0"/>
<path d="M381.087 347.97C381.599 347.959 382.097 347.805 382.527 347.526C382.956 347.247 383.3 346.854 383.518 346.39C383.736 345.927 383.822 345.412 383.764 344.903C383.706 344.395 383.508 343.912 383.191 343.51C381.634 341.542 385.421 336.987 389.429 332.158C397.971 321.891 410.879 306.363 393.248 288.553C382.128 277.318 382.37 272.668 382.991 271.185C384.096 268.555 389.303 267.965 390.986 268.029C391.686 267.985 392.344 267.677 392.824 267.165C393.305 266.654 393.572 265.979 393.572 265.278C393.572 264.576 393.305 263.901 392.824 263.39C392.344 262.879 391.686 262.57 390.986 262.527C389.934 262.527 380.613 262.6 377.878 269.06C375.511 274.646 379.246 282.304 389.292 292.445C403.41 306.7 393.7 318.367 385.148 328.666C379.667 335.262 374.491 341.479 378.836 346.95C379.104 347.284 379.448 347.551 379.839 347.729C380.23 347.906 380.658 347.989 381.087 347.97Z" fill="#E0E0E0"/>
<path d="M420.895 323.174H362.203L375.196 379.078H407.892L420.895 323.174Z" fill="#F5F5F5"/>
<path d="M421.505 325.678H361.541C360.878 325.675 360.242 325.411 359.774 324.942C359.305 324.473 359.04 323.837 359.037 323.174C359.04 322.512 359.305 321.878 359.774 321.411C360.243 320.943 360.879 320.681 361.541 320.681H421.505C422.158 320.695 422.78 320.963 423.238 321.429C423.696 321.895 423.953 322.521 423.956 323.174C423.956 323.829 423.7 324.458 423.241 324.926C422.783 325.394 422.16 325.664 421.505 325.678Z" fill="#EBEBEB"/>
<path d="M370.925 264.304L426.376 282.62C426.376 282.62 446.469 269.049 431.878 262.947C438.811 251.112 439.694 228.021 417.36 221.33C395.026 214.64 396.604 247.252 396.604 247.252C396.604 247.252 369.063 218.122 370.304 252.722C365.044 251.281 342.816 256.551 370.925 264.304Z" fill="#E0E0E0"/>
<path d="M417.202 289.374H349.958C349.958 289.374 332.222 276.855 350.8 277.486C347.108 261.517 357.501 244.022 380.971 243.349C404.442 242.675 396.183 268.712 396.183 268.712C396.183 268.712 435.602 259.318 423.672 278.717C443.208 279.674 433.109 284.682 417.202 289.374Z" fill="#E6E6E6"/>
<path d="M363.509 292.992L416.34 294.897C417.719 294.913 419.079 294.579 420.294 293.926C421.508 293.272 422.537 292.321 423.283 291.162C425.282 288.332 425.808 284.85 417.36 283.798C420.064 275.445 414.089 260.896 392.249 259.77C370.41 258.645 381.361 278.833 381.361 278.833C381.361 278.833 348.318 264.41 359.595 285.86C354.524 285.65 336.23 292.014 363.509 292.992Z" fill="#E0E0E0"/>
<path d="M261 428.578C140.64 428.578 43.0679 422.881 43.0679 415.854C43.0679 408.827 140.64 403.13 261 403.13C381.361 403.13 478.933 408.827 478.933 415.854C478.933 422.881 381.361 428.578 261 428.578Z" fill="#C2DAF1"/>
<path d="M363.385 104.483C372.523 103.202 380.391 127.986 372.523 133.977C364.655 139.968 347.076 143.194 331.373 136.225C319.942 131.178 322.022 119.657 329.968 106.821C336.375 96.5141 350.436 85.6001 363.385 104.483Z" fill="#263238"/>
<path d="M323.832 158.919C323.315 165.134 322.933 171.373 322.595 177.599C322.258 183.826 321.977 190.076 321.73 196.314L321.91 195.347C321.986 195.075 322.12 194.821 322.303 194.606C322.371 194.538 322.303 194.606 322.303 194.606C322.07 194.836 321.818 195.046 321.55 195.235C320.76 195.791 319.934 196.294 319.077 196.741C317.245 197.708 315.233 198.652 313.188 199.517C311.142 200.383 309.051 201.26 306.949 202.114L300.621 204.643L301.846 209.499C304.207 209.206 306.488 208.779 308.804 208.375C311.119 207.97 313.401 207.374 315.694 206.756C318.045 206.132 320.36 205.382 322.629 204.508C323.875 204.022 325.084 203.447 326.248 202.788C326.971 202.392 327.652 201.925 328.283 201.395C328.693 201.032 329.069 200.633 329.407 200.203C329.962 199.544 330.379 198.779 330.632 197.955L330.744 197.595L330.812 196.988C331.43 190.773 332.048 184.546 332.532 178.319C333.015 172.092 333.543 165.854 333.892 159.615L323.832 158.919Z" fill="#FFB573"/>
<path d="M324.54 150.556C322.359 155.311 321.168 168.023 320.887 186.221C324.908 187.156 328.656 189.015 331.835 191.649L336.758 163.066L334.027 158.312C333.299 156.279 332.032 154.483 330.36 153.116C328.689 151.75 326.677 150.865 324.54 150.556Z" fill="#407BFF"/>
<path opacity="0.1" d="M324.54 150.556C322.359 155.311 321.168 168.023 320.887 186.221C324.908 187.156 328.656 189.015 331.835 191.649L336.758 163.066L334.027 158.312C333.299 156.279 332.032 154.483 330.36 153.116C328.689 151.75 326.677 150.865 324.54 150.556Z" fill="white"/>
<path d="M302.476 204.002L293.113 203.508L298.811 211.039C298.811 211.039 304.712 210.184 306.027 206.543L302.476 204.002Z" fill="#FFB573"/>
<path d="M288.808 210.465L290.415 212.365C290.823 212.851 291.377 213.193 291.995 213.338C292.613 213.484 293.261 213.427 293.843 213.174L298.812 211.038L293.113 203.508L289.37 206.138C289.032 206.372 288.748 206.675 288.534 207.026C288.321 207.377 288.183 207.769 288.13 208.177C288.077 208.585 288.11 208.999 288.227 209.393C288.343 209.787 288.541 210.152 288.808 210.465Z" fill="#FFB573"/>
<path d="M324.978 153.557C324.82 160.301 325.765 174.295 330.508 203.407H368.229C367.6 188.053 366.847 178.431 374.187 146.914C369.146 145.888 364.037 145.234 358.9 144.959C353.197 144.554 347.473 144.554 341.77 144.959C338.072 145.296 334.138 145.892 331.126 146.409C329.431 146.701 327.89 147.574 326.768 148.878C325.646 150.183 325.013 151.837 324.978 153.557Z" fill="#263238"/>
<path d="M353.46 164.19C353.496 164.192 353.532 164.186 353.565 164.173C353.598 164.159 353.627 164.138 353.651 164.111C356.562 160.818 361.789 152.186 361.856 146.678C361.856 146.61 361.829 146.544 361.781 146.495C361.732 146.447 361.666 146.42 361.598 146.42C361.563 146.418 361.528 146.424 361.496 146.436C361.463 146.448 361.433 146.467 361.408 146.491C361.383 146.515 361.363 146.544 361.349 146.577C361.335 146.609 361.328 146.643 361.328 146.678C361.328 151.489 356.731 159.694 353.46 163.538C351.691 161.089 349.494 158.979 346.975 157.311C346.946 157.293 346.914 157.28 346.88 157.274C346.846 157.267 346.812 157.268 346.778 157.275C346.745 157.283 346.713 157.297 346.685 157.316C346.657 157.336 346.633 157.361 346.615 157.39C346.579 157.447 346.566 157.516 346.578 157.583C346.591 157.65 346.628 157.709 346.682 157.75C349.232 159.446 351.443 161.604 353.202 164.111C353.22 164.149 353.249 164.18 353.285 164.202C353.321 164.224 353.362 164.235 353.404 164.235L353.46 164.19Z" fill="white"/>
<path d="M337.904 164.19C337.946 164.189 337.987 164.177 338.022 164.156C338.058 164.134 338.087 164.103 338.107 164.067C339.859 161.557 342.066 159.399 344.615 157.705C344.673 157.667 344.714 157.609 344.728 157.541C344.743 157.474 344.73 157.403 344.693 157.345C344.656 157.287 344.597 157.246 344.53 157.231C344.462 157.216 344.392 157.229 344.334 157.266C341.814 158.934 339.617 161.044 337.848 163.493C334.937 159.739 335.78 151.129 337.724 146.521C337.739 146.489 337.747 146.455 337.749 146.42C337.75 146.385 337.744 146.35 337.731 146.318C337.719 146.285 337.7 146.256 337.675 146.231C337.651 146.206 337.622 146.186 337.59 146.172C337.524 146.146 337.451 146.147 337.385 146.174C337.32 146.202 337.268 146.253 337.241 146.319C335.195 151.219 334.364 160.357 337.679 164.111C337.708 164.141 337.744 164.163 337.783 164.177C337.822 164.191 337.863 164.195 337.904 164.19Z" fill="white"/>
<path d="M357.203 125.671C356.079 131.178 355.045 141.283 358.9 144.959C355.773 150.017 351.121 153.952 345.615 156.199C338.241 151.579 341.771 144.959 341.771 144.959C347.919 143.486 347.75 138.934 346.682 134.652L357.203 125.671Z" fill="#FFB573"/>
<path opacity="0.2" d="M352.91 129.335L346.694 134.64C346.951 135.64 347.127 136.658 347.222 137.686C349.56 137.349 352.786 134.764 353.045 132.302C353.182 131.313 353.136 130.307 352.91 129.335Z" fill="black"/>
<path d="M363.014 115.555C360.856 124.547 360.125 128.357 354.73 132.201C346.604 137.979 336.072 133.325 335.51 123.929C335.004 115.442 338.623 102.213 348.132 100.178C350.227 99.7199 352.403 99.8044 354.456 100.424C356.509 101.043 358.369 102.177 359.86 103.718C361.351 105.258 362.423 107.155 362.975 109.226C363.527 111.298 363.541 113.476 363.014 115.555Z" fill="#FFB573"/>
<path d="M362.768 105.832C357.148 108.968 338.096 107.844 340.928 102.123C343.761 96.4017 355.844 97.8179 362.768 105.832Z" fill="#263238"/>
<path d="M358.553 105.551C353.641 112.531 355.046 122.153 366.005 122.186C376.964 122.22 369.276 103.112 358.553 105.551Z" fill="#263238"/>
<path d="M350.437 122.22L340.32 123.58C340.32 123.58 341.613 126.491 346.345 125.828C350.257 125.165 350.437 122.22 350.437 122.22Z" fill="white"/>
<path d="M330.509 203.406C330.509 203.406 333.69 273.353 334.297 301.678C334.937 331.149 335.218 399.96 335.218 399.96H342.648C342.648 399.96 354.517 342.771 350.999 301.678C356.316 270.127 359.901 203.406 359.901 203.406H330.509Z" fill="#FFB573"/>
<path d="M340.366 203.406C340.366 203.406 356.102 276.253 363.633 303.555C369.253 324.045 408.413 382.325 408.694 384.483L414.617 381.223C414.617 381.223 391.733 317.47 381.538 299.362C381.538 267.362 368.23 203.451 368.23 203.451L340.366 203.406Z" fill="#FFB573"/>
<path d="M347.492 115.476C347.357 116.218 346.862 116.746 346.368 116.6C345.873 116.454 345.603 115.847 345.727 115.116C345.851 114.386 346.356 113.846 346.851 113.936C347.346 114.026 347.615 114.734 347.492 115.476Z" fill="#263238"/>
<path d="M339.152 113.992C339.017 114.723 338.522 115.262 338.028 115.116C337.533 114.97 337.263 114.363 337.387 113.621C337.511 112.88 338.017 112.363 338.511 112.441C339.006 112.52 339.275 113.228 339.152 113.992Z" fill="#263238"/>
<path d="M338.714 112.576L337.039 111.756C337.039 111.756 337.702 113.295 338.714 112.576Z" fill="#263238"/>
<path d="M341.85 115.319C340.889 116.882 339.721 118.308 338.376 119.556C338.707 119.891 339.107 120.149 339.547 120.314C339.988 120.479 340.459 120.547 340.928 120.512L341.85 115.319Z" fill="#ED893E"/>
<path d="M364.274 120.669C363.584 122.315 362.271 123.62 360.621 124.299C358.429 125.176 357.069 123.277 357.462 121.074C357.822 119.095 359.384 116.24 361.689 116.297C362.192 116.319 362.682 116.467 363.114 116.727C363.546 116.987 363.907 117.35 364.163 117.784C364.42 118.218 364.564 118.709 364.584 119.212C364.603 119.716 364.496 120.217 364.274 120.669Z" fill="#FFB573"/>
<path d="M351.336 111.935C351.221 111.903 351.122 111.832 351.055 111.733C350.778 111.253 350.391 110.846 349.926 110.545C349.461 110.244 348.931 110.058 348.38 110.002C348.264 109.996 348.156 109.946 348.076 109.863C347.997 109.779 347.952 109.668 347.952 109.553C347.954 109.494 347.967 109.436 347.991 109.383C348.015 109.33 348.05 109.282 348.093 109.242C348.136 109.202 348.186 109.171 348.241 109.151C348.296 109.131 348.355 109.122 348.413 109.125C349.107 109.185 349.776 109.411 350.363 109.785C350.95 110.159 351.438 110.669 351.785 111.272C351.816 111.321 351.838 111.375 351.848 111.432C351.858 111.489 351.857 111.547 351.844 111.604C351.832 111.66 351.808 111.714 351.775 111.761C351.741 111.808 351.699 111.848 351.65 111.879C351.555 111.933 351.444 111.953 351.336 111.935Z" fill="#263238"/>
<path d="M337.432 109.586C337.376 109.581 337.323 109.565 337.274 109.538C337.226 109.51 337.184 109.473 337.151 109.429C337.114 109.384 337.087 109.332 337.071 109.277C337.055 109.221 337.05 109.163 337.056 109.106C337.062 109.048 337.08 108.993 337.108 108.942C337.135 108.891 337.173 108.847 337.218 108.811C337.755 108.363 338.391 108.05 339.073 107.898C339.756 107.745 340.465 107.758 341.141 107.934C341.236 107.983 341.311 108.065 341.352 108.164C341.392 108.263 341.396 108.374 341.362 108.476C341.328 108.578 341.259 108.664 341.167 108.719C341.074 108.774 340.966 108.795 340.86 108.777C340.325 108.644 339.765 108.639 339.228 108.764C338.69 108.889 338.19 109.14 337.769 109.496C337.672 109.568 337.552 109.6 337.432 109.586Z" fill="#263238"/>
<path d="M347.054 114.06L345.379 113.228C345.379 113.228 346.042 114.779 347.054 114.06Z" fill="#263238"/>
<path d="M329.969 208.431L331.655 301.723C331.655 301.723 343.379 303.825 357.193 296.687C365.39 292.422 374.639 290.597 383.843 291.427C386.866 234.912 376.986 217.142 369.41 208.476L329.969 208.431Z" fill="#263238"/>
<path opacity="0.2" d="M337.151 266.901L358.069 251.424L364.892 238.824L337.151 266.901Z" fill="black"/>
<path d="M328.362 197.652L329.756 210.735C339.759 211.938 354.304 211.499 369.759 210.735L368.534 197.652C353.989 198.146 340.153 198.326 328.362 197.652Z" fill="white"/>
<path d="M359.912 144.239C359.912 144.239 359.62 217.299 363.104 234.968C368.859 229.562 376.806 216.984 376.806 216.984C376.806 216.984 372.31 202.721 371.062 199.315C371.759 194.178 377.514 151.556 376.682 147.117C370.893 145.105 359.912 144.239 359.912 144.239Z" fill="#407BFF"/>
<path opacity="0.2" d="M359.912 144.239C359.912 144.239 359.62 217.299 363.104 234.968C368.859 229.562 376.806 216.984 376.806 216.984C376.806 216.984 372.31 202.721 371.062 199.315C371.759 194.178 377.514 151.556 376.682 147.117C370.893 145.105 359.912 144.239 359.912 144.239Z" fill="white"/>
<path d="M372.378 158.255C375.255 162.156 378.155 166.247 380.92 170.305C383.685 174.362 386.383 178.487 388.788 182.669C389.384 183.714 389.912 184.759 390.485 185.805C390.778 186.322 391.036 186.85 391.272 187.367L391.958 188.795C391.958 188.626 391.958 188.412 391.958 188.412C391.958 188.412 391.958 188.581 391.958 188.84C391.612 189.607 391.149 190.315 390.587 190.941C389.09 192.636 387.443 194.189 385.663 195.584C383.82 197.078 381.808 198.573 379.875 199.945L382.044 204.441C384.567 203.593 387.024 202.56 389.395 201.35C391.896 200.091 394.24 198.541 396.375 196.73C397.664 195.635 398.765 194.336 399.635 192.886C400.212 191.926 400.615 190.872 400.826 189.772C401.083 188.403 400.987 186.991 400.545 185.67L400.455 185.423V185.288L400.354 185.04L400.163 184.568L399.781 183.624C399.534 182.972 399.275 182.354 398.994 181.747C398.443 180.522 397.87 179.308 397.274 178.15C394.904 173.512 392.277 169.009 389.406 164.662C388.013 162.504 386.563 160.38 385.079 158.289C383.595 156.199 382.1 154.142 380.471 152.062L372.378 158.255Z" fill="#FFB573"/>
<path d="M381.009 199.473L370.995 198.719L376.525 206.374C376.525 206.374 382.448 205.643 383.842 202.047L381.009 199.473Z" fill="#FFB573"/>
<path d="M366.656 205.7L368.117 207.498C368.522 208.002 369.076 208.365 369.699 208.536C370.323 208.708 370.984 208.679 371.59 208.453L376.547 206.374L371.017 198.719L367.341 201.181C366.985 201.421 366.682 201.732 366.452 202.095C366.222 202.458 366.07 202.865 366.006 203.29C365.941 203.714 365.966 204.148 366.078 204.563C366.19 204.978 366.386 205.365 366.656 205.7Z" fill="#FFB573"/>
<path d="M338.759 144.239C338.759 144.239 334.533 173.283 333.768 196.528C333.307 210.476 335.848 228.224 335.555 234.968C331.868 231.287 329.016 226.856 327.193 221.975C327.193 221.975 325.484 215.883 327.597 199.315C327.024 195.134 324.495 166.427 324.001 153.512C323.934 151.811 324.456 150.139 325.48 148.779C326.505 147.419 327.967 146.454 329.621 146.049C334.319 144.936 338.759 144.239 338.759 144.239Z" fill="#407BFF"/>
<g opacity="0.2">
<path opacity="0.2" d="M338.759 144.239C338.759 144.239 334.533 173.283 333.768 196.528C333.307 210.476 335.848 228.224 335.555 234.968C331.868 231.287 329.016 226.856 327.193 221.975C327.193 221.975 325.484 215.883 327.597 199.315C327.024 195.134 324.495 166.427 324.001 153.512C323.934 151.811 324.456 150.139 325.48 148.779C326.505 147.419 327.967 146.454 329.621 146.049C334.319 144.936 338.759 144.239 338.759 144.239Z" fill="white"/>
</g>
<path d="M345.03 162.875C345.435 162.875 345.862 162.336 346.031 161.549C346.211 160.717 346.031 160.009 345.581 159.919C345.131 159.829 344.637 160.402 344.457 161.234C344.324 161.699 344.372 162.197 344.592 162.628C344.673 162.751 344.797 162.84 344.94 162.875H345.03ZM345.772 161.493C345.615 162.212 345.221 162.617 344.985 162.617C344.948 162.608 344.912 162.591 344.881 162.568C344.85 162.545 344.825 162.515 344.806 162.482C344.637 162.107 344.605 161.686 344.716 161.29C344.862 160.582 345.266 160.166 345.525 160.166C345.783 160.166 345.93 160.773 345.772 161.481V161.493Z" fill="white"/>
<path d="M343.839 170.766C344.278 170.766 344.66 170.17 344.75 169.361C344.84 168.551 344.581 167.855 344.132 167.798C344.056 167.793 343.98 167.804 343.909 167.829C343.837 167.854 343.772 167.893 343.716 167.944C343.383 168.283 343.183 168.73 343.154 169.203C343.075 169.672 343.176 170.154 343.435 170.552C343.479 170.611 343.535 170.66 343.599 170.696C343.662 170.733 343.733 170.757 343.806 170.766H343.839ZM344.075 168.057C344.334 168.057 344.548 168.596 344.469 169.316C344.39 170.035 344.075 170.44 343.817 170.44C343.779 170.436 343.742 170.423 343.709 170.404C343.676 170.385 343.648 170.359 343.626 170.327C343.419 169.991 343.339 169.593 343.401 169.203C343.412 168.783 343.58 168.381 343.873 168.079C343.936 168.05 344.007 168.043 344.075 168.057Z" fill="white"/>
<path d="M343.479 178.611C343.929 178.611 344.266 177.959 344.277 177.139C344.277 176.307 343.951 175.677 343.502 175.666C343.427 175.667 343.354 175.683 343.286 175.714C343.218 175.745 343.158 175.79 343.108 175.846C342.805 176.207 342.649 176.668 342.67 177.139C342.643 177.597 342.778 178.051 343.052 178.42C343.107 178.479 343.173 178.526 343.246 178.559C343.32 178.592 343.399 178.61 343.479 178.611ZM344.03 177.139C344.03 177.847 343.738 178.341 343.479 178.353C343.4 178.342 343.328 178.302 343.277 178.24C343.029 177.921 342.912 177.519 342.951 177.116C342.921 176.711 343.045 176.309 343.299 175.992C343.325 175.963 343.356 175.939 343.39 175.921C343.425 175.904 343.463 175.894 343.502 175.891C343.749 175.891 344.019 176.386 344.019 177.094L344.03 177.139Z" fill="white"/>
<path d="M343.907 186.344H343.974C344.412 186.288 344.693 185.636 344.615 184.827C344.536 184.006 344.131 183.411 343.693 183.456C343.544 183.477 343.407 183.553 343.311 183.669C343.06 184.059 342.956 184.525 343.019 184.984C343.041 185.445 343.233 185.882 343.558 186.209C343.656 186.292 343.779 186.339 343.907 186.344ZM344.356 184.849C344.424 185.546 344.188 186.052 343.94 186.086C343.9 186.088 343.859 186.083 343.82 186.069C343.781 186.056 343.746 186.035 343.716 186.007C343.45 185.722 343.295 185.351 343.277 184.962C343.226 184.571 343.309 184.175 343.513 183.838C343.563 183.773 343.635 183.729 343.716 183.714C343.963 183.714 344.266 184.164 344.334 184.838L344.356 184.849Z" fill="white"/>
<path d="M344.592 193.943C345.041 193.886 345.311 193.234 345.233 192.425C345.165 191.638 344.783 191.065 344.356 191.065C344.281 191.073 344.209 191.096 344.143 191.133C344.077 191.17 344.02 191.219 343.974 191.279C343.719 191.662 343.619 192.128 343.693 192.582C343.706 193.04 343.895 193.475 344.221 193.796C344.323 193.888 344.455 193.94 344.592 193.943ZM344.412 191.335C344.659 191.335 344.963 191.773 345.03 192.459C345.098 193.156 344.873 193.662 344.614 193.695C344.531 193.695 344.45 193.663 344.39 193.605C344.126 193.324 343.974 192.956 343.962 192.571C343.897 192.182 343.977 191.782 344.187 191.447C344.21 191.414 344.24 191.385 344.275 191.364C344.31 191.343 344.349 191.329 344.39 191.324L344.412 191.335Z" fill="white"/>
<path opacity="0.2" d="M372.523 163.235C372.926 165.933 373.646 168.574 374.67 171.103C374.895 169.181 375.12 167.259 375.322 165.415L372.523 163.235Z" fill="black"/>
<path d="M376.772 147.117C380.953 150.253 389.349 163.179 398.24 179.049C395.333 181.455 392.56 184.017 389.934 186.726L371.95 163.932L372.085 158.447C371.758 156.31 372.022 154.125 372.849 152.128C373.675 150.131 375.031 148.398 376.772 147.117Z" fill="#407BFF"/>
<path opacity="0.2" d="M376.772 147.117C380.953 150.253 389.349 163.179 398.24 179.049C395.333 181.455 392.56 184.017 389.934 186.726L371.95 163.932L372.085 158.447C371.758 156.31 372.022 154.125 372.849 152.128C373.675 150.131 375.031 148.398 376.772 147.117Z" fill="white"/>
<path d="M335.184 393.194C333.869 404.209 326.844 412.729 326.844 412.729L338.275 409.795L343.49 401.601L342.366 399.443L335.184 393.194Z" fill="#FFB573"/>
<path d="M343.951 398.825C344.399 399.777 344.614 400.82 344.581 401.871C344.513 405.682 344.086 415.809 344.086 415.809H343.187C343.197 412.693 343.04 409.579 342.715 406.48C342.276 403.962 340.467 406.94 339.5 409.784C338.533 412.628 334.498 415.674 328.687 415.809C321.876 415.977 319.111 415.674 321.089 414.022C323.067 412.369 327.586 411.313 327.586 411.313C329.434 411.263 331.237 410.729 332.815 409.764C334.393 408.8 335.69 407.439 336.578 405.816C338.601 402.163 341.074 398.533 342.748 397.679C343.024 397.764 343.276 397.912 343.484 398.111C343.693 398.31 343.853 398.554 343.951 398.825Z" fill="#263238"/>
<path d="M407.446 382.1C410.582 389.822 410.942 401.523 410.942 401.523L418.36 390.609L416.922 381.01L414.674 380.133L407.446 382.1Z" fill="#FFB573"/>
<path d="M415.438 378.616C416.397 379.035 417.241 379.678 417.899 380.493C420.361 383.415 426.678 391.339 426.678 391.339L426.003 391.924C423.963 389.562 421.798 387.311 419.518 385.18C417.54 383.572 418.147 386.989 419.271 389.788C420.395 392.587 419.36 397.51 415.067 401.433C410.043 406.03 407.761 407.615 408.165 405.075C408.57 402.534 411.279 398.724 411.279 398.724C412.63 397.473 413.631 395.891 414.183 394.135C414.735 392.378 414.819 390.508 414.426 388.709C413.561 384.618 413.021 380.268 413.741 378.514C414.012 378.397 414.306 378.346 414.601 378.363C414.896 378.381 415.182 378.467 415.438 378.616Z" fill="#263238"/>
<path d="M291.348 210.6H116.914C112.054 210.675 107.397 212.559 103.853 215.885C100.309 219.211 98.1325 223.739 97.7498 228.584L90.8934 335.746C90.7222 338.057 91.0323 340.378 91.8041 342.562C92.5759 344.747 93.7926 346.748 95.3772 348.438C96.9618 350.128 98.8799 351.471 101.01 352.382C103.14 353.293 105.437 353.752 107.753 353.73H282.243C287.092 353.64 291.734 351.748 295.266 348.424C298.798 345.1 300.967 340.581 301.351 335.746L308.208 228.607C308.384 226.294 308.077 223.97 307.307 221.782C306.538 219.594 305.322 217.59 303.736 215.897C302.151 214.203 300.231 212.858 298.098 211.947C295.966 211.035 293.667 210.576 291.348 210.6Z" fill="#407BFF"/>
<path opacity="0.3" d="M291.348 210.6H116.914C112.054 210.675 107.397 212.559 103.853 215.885C100.309 219.211 98.1325 223.739 97.7498 228.584L90.8934 335.746C90.7222 338.057 91.0323 340.378 91.8041 342.562C92.5759 344.747 93.7926 346.748 95.3772 348.438C96.9618 350.128 98.8799 351.471 101.01 352.382C103.14 353.293 105.437 353.752 107.753 353.73H282.243C287.092 353.64 291.734 351.748 295.266 348.424C298.798 345.1 300.967 340.581 301.351 335.746L308.208 228.607C308.384 226.294 308.077 223.97 307.307 221.782C306.538 219.594 305.322 217.59 303.736 215.897C302.151 214.203 300.231 212.858 298.098 211.947C295.966 211.035 293.667 210.576 291.348 210.6Z" fill="white"/>
<path d="M282.232 353.764H107.765C103.483 353.803 99.3497 352.193 96.2217 349.268L200.551 266.991L294.383 349.268C290.991 352.154 286.686 353.747 282.232 353.764Z" fill="#407BFF"/>
<path opacity="0.5" d="M282.232 353.764H107.765C103.483 353.803 99.3497 352.193 96.2217 349.268L200.551 266.991L294.383 349.268C290.991 352.154 286.686 353.747 282.232 353.764Z" fill="white"/>
<path d="M198.888 293.068L107.653 213.073C110.469 211.447 113.662 210.587 116.914 210.578H291.348C294.519 210.556 297.633 211.42 300.34 213.073L198.888 293.068Z" fill="#407BFF"/>
<path d="M136.123 211.016L142.204 115.813C142.395 113.205 143.557 110.764 145.462 108.972C147.366 107.18 149.873 106.168 152.488 106.136H288.492C285.877 106.17 283.37 107.183 281.464 108.974C279.559 110.765 278.393 113.205 278.196 115.813L272.16 210.229" fill="white"/>
<path d="M136.123 212.399C136.484 212.399 136.831 212.263 137.094 212.016C137.357 211.77 137.516 211.432 137.539 211.072L143.62 115.869C143.783 113.621 144.786 111.515 146.428 109.97C148.071 108.426 150.234 107.554 152.488 107.529H280.939C279.738 108.544 278.753 109.789 278.04 111.19C277.328 112.592 276.903 114.122 276.792 115.69L270.756 210.106C270.731 210.299 270.747 210.495 270.801 210.683C270.856 210.87 270.948 211.044 271.072 211.194C271.196 211.344 271.35 211.468 271.524 211.556C271.697 211.645 271.887 211.697 272.082 211.709C272.277 211.721 272.472 211.694 272.655 211.628C272.838 211.562 273.006 211.459 273.149 211.326C273.291 211.192 273.404 211.031 273.482 210.852C273.559 210.673 273.599 210.48 273.6 210.286L279.624 115.869C279.788 113.619 280.792 111.512 282.436 109.967C284.081 108.422 286.247 107.552 288.504 107.529C288.859 107.498 289.19 107.334 289.43 107.071C289.671 106.808 289.805 106.464 289.805 106.108C289.805 105.751 289.671 105.407 289.43 105.144C289.19 104.881 288.859 104.717 288.504 104.686H152.5C149.516 104.711 146.65 105.856 144.471 107.894C142.291 109.932 140.957 112.714 140.731 115.69L134.639 210.892C134.618 211.269 134.747 211.639 134.997 211.922C135.248 212.204 135.6 212.375 135.977 212.399H136.123Z" fill="#407BFF"/>
<path d="M288.504 106.102C289.751 106.089 290.986 106.335 292.132 106.825C293.279 107.315 294.31 108.038 295.162 108.948C296.014 109.858 296.668 110.935 297.081 112.112C297.494 113.288 297.659 114.537 297.564 115.78H278.208C278.405 113.172 279.571 110.732 281.476 108.941C283.382 107.149 285.889 106.137 288.504 106.102Z" fill="#407BFF"/>
<path d="M278.208 117.207H297.564C297.926 117.208 298.275 117.069 298.538 116.82C298.802 116.572 298.96 116.231 298.98 115.869C299.091 114.432 298.901 112.988 298.424 111.628C297.946 110.268 297.19 109.023 296.205 107.971C295.22 106.919 294.026 106.083 292.7 105.518C291.375 104.952 289.946 104.669 288.504 104.686C285.521 104.714 282.657 105.859 280.478 107.897C278.299 109.934 276.964 112.715 276.736 115.69C276.725 115.884 276.753 116.079 276.818 116.262C276.884 116.446 276.986 116.614 277.118 116.757C277.259 116.904 277.428 117.02 277.616 117.097C277.804 117.175 278.005 117.212 278.208 117.207ZM296.125 114.352H279.861C280.339 112.416 281.448 110.693 283.013 109.456C284.578 108.219 286.51 107.537 288.504 107.518C290.403 107.482 292.246 108.167 293.66 109.435C295.074 110.703 295.955 112.46 296.125 114.352Z" fill="#407BFF"/>
<path d="M152.488 106.102H288.492C285.877 106.137 283.37 107.149 281.464 108.941C279.559 110.732 278.393 113.172 278.196 115.78L270.474 236.621L198.887 293.068L134.437 237.363L142.204 115.757C142.4 113.153 143.565 110.717 145.469 108.93C147.373 107.143 149.877 106.134 152.488 106.102Z" fill="white"/>
<path opacity="0.3" d="M270.486 236.621L198.899 293.091L134.437 237.385L204.002 283.323L270.486 236.621Z" fill="#407BFF"/>
<path opacity="0.3" d="M149.184 182.579H262.696L263.27 173.733H149.746L149.184 182.579Z" fill="#407BFF"/>
<path opacity="0.3" d="M172.563 209.993H260.955L261.517 201.147H173.125L172.563 209.993Z" fill="#407BFF"/>
<path opacity="0.3" d="M145.677 237.408H212.398L212.96 228.551H146.239L145.677 237.408Z" fill="#407BFF"/>
<path opacity="0.3" d="M151.41 153.557H218.13L218.692 144.7H151.972L151.41 153.557Z" fill="#407BFF"/>
<path opacity="0.3" d="M259.201 237.408H223.48L224.053 228.551H259.763L259.201 237.408Z" fill="#407BFF"/>
<path opacity="0.3" d="M264.934 153.557H229.213L229.787 144.7H265.496L264.934 153.557Z" fill="#407BFF"/>
<path d="M317.436 0.580772H204.171C199.68 0.656721 195.378 2.39682 192.097 5.46394C188.816 8.53106 186.79 12.7068 186.412 17.1823L182.422 74.8097C182.243 76.9386 182.511 79.0813 183.209 81.1005C183.907 83.1197 185.019 84.9707 186.474 86.5348C187.929 88.099 189.695 89.3418 191.659 90.1835C193.623 91.0251 195.74 91.4472 197.877 91.4224H206.25L204.789 112.43L227.28 91.4224H311.142C315.634 91.3437 319.937 89.6012 323.217 86.5323C326.498 83.4633 328.523 79.2862 328.901 74.8097L332.936 17.1823C333.112 15.0508 332.84 12.9062 332.138 10.886C331.436 8.86585 330.32 7.01475 328.86 5.45152C327.401 3.88829 325.63 2.64745 323.663 1.80865C321.696 0.96985 319.575 0.55161 317.436 0.580772Z" fill="#407BFF"/>
<path d="M287.594 42.9893H287.381C288.496 42.9733 289.572 42.5767 290.43 41.8653C291.289 41.1539 291.879 40.1703 292.102 39.0777C292.156 38.4301 292.075 37.7781 291.863 37.1636C291.652 36.5491 291.314 35.9857 290.871 35.5095C290.429 35.0332 289.892 34.6547 289.295 34.3982C288.697 34.1416 288.053 34.0127 287.403 34.0197H285.728L267.463 32.3C268.2 29.1509 268.748 25.9605 269.105 22.746C269.633 17.452 266.587 10.9216 261.54 13.2595C259.506 14.2036 260.236 20.779 259.101 23.3755C257.966 25.9719 248.367 33.6488 245.444 39.1115C244.661 39.4232 243.981 39.949 243.482 40.6287C242.983 41.3084 242.686 42.1147 242.623 42.9555L241.42 60.2989C241.328 61.5222 241.486 62.7517 241.886 63.9115C242.286 65.0713 242.92 66.1369 243.747 67.0429C244.594 67.934 245.614 68.6421 246.745 69.1235C247.876 69.6049 249.093 69.8493 250.322 69.8416H280.401C281.447 69.846 282.469 69.5234 283.324 68.9188C284.178 68.3143 284.822 67.458 285.166 66.4696C285.389 65.8388 285.456 65.1637 285.362 64.5015C285.268 63.8393 285.015 63.2095 284.626 62.6657C284.236 62.1219 283.721 61.68 283.125 61.3775C282.528 61.0751 281.868 60.921 281.199 60.9283H285.043C286.099 60.9125 287.112 60.5047 287.885 59.7839C288.658 59.0631 289.135 58.0809 289.224 57.028C289.362 56.4175 289.359 55.7837 289.217 55.1743C289.074 54.5648 288.796 53.9955 288.402 53.5089C288.009 53.0224 287.51 52.6312 286.944 52.3647C286.378 52.0981 285.759 51.9632 285.133 51.97H287.178C288.362 51.9509 289.499 51.5029 290.378 50.7091C291.256 49.9154 291.817 48.8297 291.955 47.6539C292.015 47.0524 291.945 46.4451 291.751 45.8727C291.557 45.3002 291.244 44.7758 290.831 44.3343C290.418 43.8928 289.916 43.5444 289.358 43.3125C288.8 43.0805 288.198 42.9703 287.594 42.9893Z" fill="white"/>
<path d="M233.631 69.8754H228.011C227.579 69.8803 227.15 69.7944 226.753 69.6232C226.355 69.452 225.998 69.1993 225.705 68.8815C225.411 68.5636 225.188 68.1877 225.049 67.7781C224.91 67.3684 224.858 66.9342 224.898 66.5034L226.64 41.3595C226.71 40.4517 227.116 39.6027 227.78 38.979C228.443 38.3552 229.315 38.0016 230.226 37.9875H235.789C236.222 37.9827 236.652 38.0686 237.049 38.2397C237.447 38.4108 237.805 38.6633 238.099 38.9809C238.393 39.2986 238.618 39.6743 238.758 40.084C238.899 40.4936 238.952 40.9281 238.914 41.3595L237.172 66.5034C237.1 67.4027 236.699 68.2441 236.046 68.8663C235.393 69.4885 234.533 69.8478 233.631 69.8754Z" fill="white"/>
</svg>
